{
	"$comment": [
        "detached:true means that the child node is actually considered a root node, the parent is only responsible for cleaning up"
	],

	"$defs": {
		"$comment": "This section is the definition section. It can be referenced by other sections in the document",
		"baseObject": {
            "detached" : true,
			"components": {
				"SceneComponent": {
					"uri": "rc:/models/BoxTextured.gltf"
				},
                "CollisionComponent" : {
                    "shape" : "box",
                    "x" : 0.5,
                    "y" : 0.5,
                    "z" : 0.5
                },
                "MassComponent" : { "mass" : 1.0}
			}
		},
        "$camera" : {
            "name" : "camera",
            "detached" : true,
            "components" : {
                "CameraComponent" :
                {
                    "fieldOfViewDegrees" : 60,
                    "nearPlane" : 0.1,
                    "farPlane"  : 100,
                    "environment" :
                    {
                        "uri" : "rc:environments/papermill.environment"
                    }
                },
                "LightComponent" : {
                    "type" : "SPOT"
                },
                "TransformComponent" : 
                {
                    "position" : [0,0,-5]
                },
                "CollisionComponent" : {
                    "shape" : "box",
                    "x" : 0.5,
                    "y" : 0.5,
                    "z" : 0.5
                },
                "MassComponent" : { "mass" : 0.0, "isKinematic" : true },

                "ScriptComponent" :
                {
                    "scripts" :
                    [
                        {
                            "uri" : "rc:scripts/example/playerInput.lua",
                            "variables" : {
                                 "LOOK_SENSITIVITY_V" :  0.45,
                                 "LOOK_SENSITIVITY_H" :  0.45,
                                 "FORWARD_SENSITIVITY":  0.45,
                                 "SIDE_SENSITIVITY"   :  0.45
                            }
                        },
                        {
                            "uri" : "rc:scripts/example/playerController.lua",
                            "variables" : {
                                 "targetEntity"         : "player",
                                 "targetOffset"         :  {
                                        "type" : "VEC3",
                                        "x" : 0,
                                        "y" : 0,
                                        "z" : 0
                                  }
                            }
                        }
                    ]
                }
            }
        }
	},
 
    "children" : [

        {
	        "name": "rootTestObject2",
            "$ref" : "#/$defs/baseObject",
            "components" :
            {
                "TransformComponent" : { "position" : [0,-3,0.1], "scale" : [10,1,10] },
                "CollisionComponent" : {
                    "shape" : "box",
                    "x" : 5.0,
                    "y" : 0.5,
                    "z" : 5.0
                },
                "MassComponent" : { "mass" : 0.0 }
            }
        },
        {
	        "name": "rootTestObject3",
            "$ref" : "#/$defs/baseObject",
            "components" :
            {
                "TransformComponent" : { "position" : [0, 3,0.1], "scale" : [1,1,1] }
            }
        },
        {
	        "name": "rootTestObject4",
            "$ref" : "#/$defs/baseObject",
            "components" :
            {
                "TransformComponent" : { "position" : [0, 6,0.1], "scale" : [1,1,1] }
            }
        },
        {
	        "name": "rootTestObject5",
            "$ref" : "#/$defs/baseObject",
            "components" :
            {
                "TransformComponent" : { "position" : [0, 9,0.1], "scale" : [1,1,1] }
            }
        }
    ]
}
